{
	"info": {
		"name": "NextGenV2",
		"_postman_id": "01e5af1d-05cc-989a-e399-8056ffe5e6cc",
		"description": "This is the part of the Nextcore API that integrates with the Dynamics 365 backend.",
		"schema": "https://schema.getpostman.com/json/collection/v2.1.0/collection.json"
	},
	"item": [
		{
			"name": "Info",
			"description": "These services are for public use and can provides the website general information.",
			"item": [
				{
					"name": "Info Currency",
					"event": [
						{
							"listen": "test",
							"script": {
								"id": "3883535e-92ef-4182-9149-438fecd9d889",
								"type": "text/javascript",
								"exec": [
									"pm.test(\"Status code is 200\", function () {",
									"    pm.response.to.have.status(200);",
									"});",
									"",
									"",
									"",
									"",
									""
								]
							}
						}
					],
					"request": {
						"method": "GET",
						"header": [],
						"body": {
							"mode": "raw",
							"raw": ""
						},
						"url": {
							"raw": "{{url}}/info/currency",
							"host": [
								"{{url}}"
							],
							"path": [
								"info",
								"currency"
							]
						},
						"description": "Deliver a list of currencies"
					},
					"response": []
				},
				{
					"name": "Info Site",
					"event": [
						{
							"listen": "test",
							"script": {
								"id": "1a0df318-e959-4ff0-b768-e2c4e5d7785a",
								"type": "text/javascript",
								"exec": [
									"pm.test(\"Status code is 200\", function () {",
									"    pm.response.to.have.status(200);",
									"    var jsonData = JSON.parse(responseBody);",
									"    pm.environment.set(\"operatorid\",jsonData.operatorid);",
									"    pm.environment.set(\"operatorname\", jsonData.operatorname);",
									"});"
								]
							}
						}
					],
					"request": {
						"method": "GET",
						"header": [],
						"body": {
							"mode": "raw",
							"raw": ""
						},
						"url": {
							"raw": "{{url}}/info/site",
							"host": [
								"{{url}}"
							],
							"path": [
								"info",
								"site"
							]
						},
						"description": "Deliver the site specific data based on the hostname, kiosk or mobile app id"
					},
					"response": []
				},
				{
					"name": "Info Payments",
					"event": [
						{
							"listen": "test",
							"script": {
								"id": "c45f29ed-986b-471a-979d-1916057e7a4f",
								"type": "text/javascript",
								"exec": [
									"pm.test(\"Status code is 200\", function () {",
									"    pm.response.to.have.status(200);",
									"});"
								]
							}
						}
					],
					"request": {
						"method": "GET",
						"header": [],
						"body": {
							"mode": "raw",
							"raw": ""
						},
						"url": {
							"raw": "{{url}}/info/payments/",
							"host": [
								"{{url}}"
							],
							"path": [
								"info",
								"payments",
								""
							]
						},
						"description": "Deliver the site specific data based on the hostname, kiosk or mobile app id"
					},
					"response": []
				}
			]
		},
		{
			"name": "Player",
			"description": "This is all player related data including registration, login, logout etc.",
			"item": [
				{
					"name": "Auth",
					"description": "Shows authentication methods and provides authentication",
					"item": [
						{
							"name": "Player Login",
							"event": [
								{
									"listen": "test",
									"script": {
										"id": "c4ea673e-e082-4a6c-b8f3-8dc9b76a4e2b",
										"type": "text/javascript",
										"exec": [
											"pm.test(\"Status code is 200\", function () {",
											"    pm.response.to.have.status(200);",
											"    var jsonData = JSON.parse(responseBody);",
											"    pm.environment.set(\"auth_token\", jsonData.token);",
											"});",
											""
										]
									}
								}
							],
							"request": {
								"method": "POST",
								"header": [
									{
										"key": "Content-Type",
										"value": "application/json"
									}
								],
								"body": {
									"mode": "raw",
									"raw": "{\n  \"operator\": \"{{operatorid}}\",\n  \"username\": \"anurajsl.bridge1\",\n  \"password\": \"123aswathy123\"\n}"
								},
								"url": {
									"raw": "{{url}}/player/auth/",
									"host": [
										"{{url}}"
									],
									"path": [
										"player",
										"auth",
										""
									]
								},
								"description": "Shows authentication methods and provides authentication"
							},
							"response": []
						},
						{
							"name": "Player Logout All",
							"event": [
								{
									"listen": "test",
									"script": {
										"id": "ed7c906b-6d3c-4b88-a3f6-4dcccd6c1955",
										"type": "text/javascript",
										"exec": [
											"pm.test(\"Status code is 200\", function () {",
											"    pm.response.to.have.status(200);",
											"});",
											"",
											"",
											"pm.test(\"Status is success\", function () {",
											"    var jsonData = pm.response.json();",
											"    pm.expect(jsonData.status).to.eql(\"success\");",
											"});"
										]
									}
								}
							],
							"request": {
								"method": "POST",
								"header": [
									{
										"key": "Authorization",
										"value": "Token {{auth_token}}"
									}
								],
								"body": {
									"mode": "raw",
									"raw": ""
								},
								"url": {
									"raw": "{{url}}/player/auth/logout/",
									"host": [
										"{{url}}"
									],
									"path": [
										"player",
										"auth",
										"logout",
										""
									]
								},
								"description": "Logout from all session"
							},
							"response": []
						},
						{
							"name": "Player Login",
							"event": [
								{
									"listen": "test",
									"script": {
										"id": "c4ea673e-e082-4a6c-b8f3-8dc9b76a4e2b",
										"type": "text/javascript",
										"exec": [
											"pm.test(\"Status code is 200\", function () {",
											"    pm.response.to.have.status(200);",
											"    var jsonData = JSON.parse(responseBody);",
											"    pm.environment.set(\"auth_token\", jsonData.token);",
											"});",
											""
										]
									}
								}
							],
							"request": {
								"method": "POST",
								"header": [
									{
										"key": "Content-Type",
										"value": "application/json"
									}
								],
								"body": {
									"mode": "raw",
									"raw": "{\n  \"operator\": \"{{operatorid}}\",\n  \"username\": \"anurajsl.bridge1\",\n  \"password\": \"123aswathy123\"\n}"
								},
								"url": {
									"raw": "{{url}}/player/auth/",
									"host": [
										"{{url}}"
									],
									"path": [
										"player",
										"auth",
										""
									]
								},
								"description": "Shows authentication methods and provides authentication"
							},
							"response": []
						}
					],
					"_postman_isSubFolder": true
				}
			]
		}
	]
}